<svg width="500" height="500" viewBox="0 0 500 500" fill="none" xmlns="http://www.w3.org/2000/svg">
<path d="M106.42 407.4C190.2 451.17 326.04 451.17 409.83 407.4C493.62 363.63 493.61 292.67 409.83 248.9C326.05 205.13 190.2 205.12 106.41 248.9C22.62 292.68 22.63 363.63 106.42 407.4Z" fill="#E3E6F8"/>
<path d="M328.23 415.44C345.169 415.44 358.9 408.895 358.9 400.82C358.9 392.746 345.169 386.2 328.23 386.2C311.291 386.2 297.56 392.746 297.56 400.82C297.56 408.895 311.291 415.44 328.23 415.44Z" fill="#BAC2ED"/>
<path d="M88.4 148V198.3C88.4 199.95 89.56 200.63 91 199.8L207.78 132.37C208.536 131.876 209.165 131.212 209.616 130.43C210.068 129.648 210.33 128.771 210.38 127.87V77.5301C210.38 75.8801 209.21 75.2001 207.78 76.0301L91 143.46C90.2374 143.956 89.6037 144.627 89.1516 145.416C88.6995 146.205 88.4419 147.091 88.4 148V148Z" fill="#F0F0F0"/>
<path d="M96.53 147.21L131.53 127.01C133.14 126.08 134.43 126.83 134.43 128.68V163.85C134.375 164.853 134.084 165.829 133.58 166.698C133.076 167.567 132.373 168.305 131.53 168.85L96.53 189.06C94.93 189.98 93.63 189.23 93.63 187.38V152.23C93.6842 151.224 93.9751 150.245 94.479 149.373C94.9829 148.501 95.6856 147.76 96.53 147.21V147.21Z" fill="#FAFAFA"/>
<path d="M124.87 144.56L114.46 166.14L109.16 163.08C108.651 162.802 108.054 162.732 107.495 162.885C106.935 163.038 106.457 163.402 106.16 163.9L93.63 185.51V187.4C93.63 189.25 94.93 190 96.53 189.08L131.53 168.87C132.372 168.323 133.073 167.585 133.577 166.716C134.08 165.848 134.373 164.873 134.43 163.87V151.5L127.43 144.16C127.274 143.942 127.06 143.771 126.812 143.667C126.564 143.563 126.292 143.53 126.027 143.571C125.761 143.613 125.512 143.727 125.308 143.902C125.104 144.076 124.952 144.304 124.87 144.56V144.56Z" fill="#2C41AE"/>
<path d="M98.89 160.08C101.053 158.669 102.852 156.769 104.143 154.533C105.434 152.297 106.18 149.788 106.32 147.21C106.32 145.04 105.62 143.47 104.47 142.63L96.53 147.21C95.6883 147.757 94.9872 148.495 94.4834 149.364C93.9796 150.232 93.6873 151.207 93.63 152.21V160.58C95 161.38 96.84 161.26 98.89 160.08Z" fill="#2C41AE"/>
<path d="M147.49 121.08L200.08 90.71C201.28 90.02 202.25 90.51 202.25 91.81C202.197 92.5385 201.973 93.2443 201.596 93.8698C201.219 94.4954 200.7 95.0231 200.08 95.41L147.49 125.77C146.29 126.46 145.32 125.97 145.32 124.67C145.374 123.943 145.599 123.24 145.976 122.616C146.353 121.992 146.872 121.466 147.49 121.08Z" fill="#FAFAFA"/>
<path d="M147.49 131.47L200.08 101.1C201.28 100.41 202.25 100.9 202.25 102.2C202.197 102.929 201.973 103.634 201.596 104.26C201.219 104.886 200.7 105.413 200.08 105.8L147.49 136.16C146.29 136.85 145.32 136.36 145.32 135.07C145.373 134.342 145.597 133.636 145.974 133.01C146.351 132.385 146.871 131.857 147.49 131.47V131.47Z" fill="#FAFAFA"/>
<path d="M147.49 141.86L200.08 111.5C201.28 110.81 202.25 111.3 202.25 112.59C202.197 113.318 201.973 114.024 201.596 114.65C201.219 115.275 200.7 115.803 200.08 116.19L147.49 146.55C146.29 147.25 145.32 146.76 145.32 145.46C145.373 144.731 145.597 144.026 145.974 143.4C146.351 142.774 146.871 142.247 147.49 141.86Z" fill="#FAFAFA"/>
<path d="M147.49 152.25L200.08 121.89C201.28 121.2 202.25 121.69 202.25 122.99C202.196 123.717 201.971 124.421 201.594 125.044C201.217 125.668 200.698 126.194 200.08 126.58L147.49 157C146.29 157.69 145.32 157.2 145.32 155.9C145.365 155.163 145.586 154.447 145.963 153.812C146.34 153.178 146.864 152.642 147.49 152.25V152.25Z" fill="#FAFAFA"/>
<path d="M64 306.26V232.45C64.0481 231.548 64.3086 230.67 64.7605 229.888C65.2123 229.106 65.8426 228.442 66.6 227.95L154.92 176.95C156.35 176.12 157.52 176.79 157.52 178.45V252.26C157.47 253.161 157.208 254.038 156.756 254.82C156.305 255.601 155.676 256.266 154.92 256.76L66.6 307.76C65.16 308.59 64 307.92 64 306.26Z" fill="#F0F0F0"/>
<path d="M64 302.57V306.26C64 307.92 65.16 308.59 66.6 307.76L154.92 256.76C155.676 256.266 156.305 255.602 156.756 254.82C157.208 254.038 157.47 253.161 157.52 252.26V248.56L64 302.57Z" fill="#2C41AE"/>
<path d="M106.73 235.63L115.73 235.16C116.83 235.1 117.13 235.72 116.4 236.56L106.06 248.32C105.33 249.15 104.74 248.92 104.74 247.82V237.74C104.744 237.202 104.951 236.686 105.32 236.294C105.69 235.903 106.193 235.666 106.73 235.63Z" fill="#2C41AE"/>
<path d="M104.41 254.77C103.332 254.784 102.269 254.512 101.33 253.98C99.11 252.69 97.89 249.98 97.89 246.44C97.89 239.22 102.98 230.44 109.24 226.79C112.33 225 115.24 224.73 117.48 226.01C119.72 227.29 120.93 230.01 120.93 233.54C120.93 240.77 115.83 249.54 109.58 253.19C108.024 254.16 106.242 254.704 104.41 254.77V254.77ZM114.41 225.9C112.701 225.968 111.039 226.481 109.59 227.39C103.52 230.89 98.59 239.44 98.59 246.44C98.59 249.76 99.69 252.23 101.69 253.38C103.69 254.53 106.37 254.26 109.24 252.6C115.31 249.09 120.24 240.6 120.24 233.54C120.24 230.22 119.14 227.76 117.14 226.6C116.303 226.132 115.359 225.891 114.4 225.9H114.41Z" fill="#2C41AE"/>
<path d="M351.41 121.53C351.291 121.529 351.174 121.498 351.07 121.44L348.26 119.81C348.183 119.765 348.115 119.706 348.06 119.635C348.006 119.564 347.966 119.483 347.942 119.397C347.919 119.31 347.913 119.22 347.925 119.132C347.936 119.043 347.965 118.957 348.01 118.88C348.055 118.803 348.114 118.735 348.185 118.68C348.256 118.626 348.337 118.586 348.423 118.562C348.51 118.539 348.6 118.533 348.688 118.545C348.777 118.556 348.863 118.585 348.94 118.63L351.75 120.26C351.828 120.305 351.896 120.364 351.95 120.435C352.005 120.506 352.045 120.587 352.068 120.673C352.091 120.76 352.097 120.85 352.086 120.938C352.074 121.027 352.045 121.113 352 121.19C351.94 121.294 351.854 121.379 351.751 121.439C351.647 121.499 351.53 121.53 351.41 121.53V121.53Z" fill="white"/>
<path d="M169.76 180.82V329.6C169.76 331.26 170.92 331.93 172.35 331.1L345.89 230.91C346.646 230.416 347.275 229.752 347.726 228.97C348.178 228.188 348.44 227.311 348.49 226.41V77.63C348.49 75.97 347.32 75.3 345.89 76.13L172.35 176.32C171.595 176.814 170.967 177.479 170.517 178.26C170.067 179.042 169.808 179.919 169.76 180.82V180.82Z" fill="#455A64"/>
<path d="M190.07 208.3C190.07 213.49 193.94 215.45 198.73 212.69L336.3 133.26V114.5L198.73 193.92C193.94 196.69 190.07 203.12 190.07 208.3Z" fill="#F5F5F5"/>
<path d="M348 107.77C352.78 105.01 356.66 106.97 356.66 112.15C356.66 117.33 352.78 123.77 348 126.53L336.35 133.26V114.5L348 107.77Z" fill="#2C41AE"/>
<path d="M343.8 123.58C343.302 123.587 342.811 123.459 342.38 123.21C341.849 122.854 341.423 122.362 341.149 121.785C340.874 121.207 340.761 120.566 340.82 119.93C340.892 118.365 341.338 116.84 342.121 115.482C342.904 114.125 344.001 112.976 345.32 112.13C345.824 111.719 346.44 111.471 347.088 111.42C347.736 111.368 348.384 111.515 348.946 111.841C349.509 112.166 349.959 112.655 350.236 113.243C350.514 113.831 350.606 114.489 350.5 115.13C350.426 116.695 349.978 118.219 349.196 119.576C348.413 120.932 347.317 122.082 346 122.93C345.336 123.336 344.578 123.56 343.8 123.58V123.58ZM347.51 112.83C346.974 112.856 346.453 113.022 346 113.31C344.896 114.044 343.976 115.023 343.313 116.172C342.65 117.32 342.263 118.606 342.18 119.93C342.077 120.328 342.107 120.749 342.266 121.129C342.426 121.508 342.705 121.825 343.061 122.03C343.418 122.236 343.831 122.318 344.24 122.266C344.648 122.214 345.027 122.029 345.32 121.74C346.426 121.007 347.346 120.028 348.009 118.879C348.672 117.731 349.059 116.444 349.14 115.12C349.191 114.723 349.137 114.32 348.982 113.952C348.828 113.583 348.579 113.261 348.26 113.02C348.032 112.889 347.773 112.824 347.51 112.83V112.83Z" fill="white"/>
<path d="M350 148.83L217 225.57C216.242 226.061 215.61 226.725 215.158 227.507C214.706 228.29 214.446 229.168 214.4 230.07V271C214.4 272.66 215.56 273.33 217 272.5L350 195.73C350.757 195.238 351.388 194.574 351.84 193.792C352.291 193.01 352.552 192.132 352.6 191.23V150.33C352.55 148.67 351.39 148 350 148.83Z" fill="#2C41AE"/>
<path opacity="0.2" d="M350 148.83L217 225.57C216.242 226.061 215.61 226.725 215.158 227.507C214.706 228.29 214.446 229.168 214.4 230.07V271C214.4 272.66 215.56 273.33 217 272.5L350 195.73C350.757 195.238 351.388 194.574 351.84 193.792C352.291 193.01 352.552 192.132 352.6 191.23V150.33C352.55 148.67 351.39 148 350 148.83Z" fill="white"/>
<path d="M265.35 204.48L289.45 190.56C290.65 189.87 291.62 190.36 291.62 191.66C291.566 192.387 291.341 193.091 290.964 193.714C290.587 194.338 290.068 194.864 289.45 195.25L265.35 209.17C264.15 209.86 263.18 209.37 263.18 208.07C263.234 207.343 263.459 206.64 263.836 206.016C264.213 205.392 264.732 204.866 265.35 204.48V204.48Z" fill="white"/>
<path d="M263.18 217.45C263.18 218.75 264.18 219.24 265.35 218.55L338.2 176.49C338.817 176.102 339.334 175.573 339.709 174.948C340.085 174.322 340.308 173.618 340.36 172.89C340.36 171.6 339.36 171.11 338.2 171.8L265.35 213.86C264.732 214.246 264.213 214.772 263.836 215.396C263.459 216.02 263.234 216.723 263.18 217.45Z" fill="white"/>
<path d="M263.18 226.83C263.18 228.13 264.18 228.62 265.35 227.93L338.2 185.87C338.817 185.481 339.334 184.953 339.709 184.328C340.085 183.702 340.308 182.997 340.36 182.27C340.36 180.98 339.36 180.49 338.2 181.18L265.35 223.24C264.732 223.626 264.213 224.152 263.836 224.776C263.459 225.4 263.234 226.103 263.18 226.83Z" fill="white"/>
<path d="M263.18 236.21C263.18 237.51 264.18 238 265.35 237.31L338.2 195.25C338.817 194.861 339.334 194.333 339.709 193.708C340.085 193.082 340.308 192.377 340.36 191.65C340.36 190.36 339.36 189.87 338.2 190.56L265.35 232.62C264.732 233.006 264.213 233.532 263.836 234.156C263.459 234.779 263.234 235.483 263.18 236.21V236.21Z" fill="white"/>
<path d="M221.1 227.91L252.46 209.8C253.9 208.98 255.06 209.65 255.06 211.3V242.83C255.011 243.732 254.75 244.609 254.298 245.391C253.847 246.173 253.217 246.837 252.46 247.33L221.1 265.43C219.67 266.26 218.5 265.59 218.5 263.94V232.41C218.548 231.508 218.809 230.63 219.26 229.848C219.712 229.066 220.343 228.402 221.1 227.91V227.91Z" fill="white"/>
<path d="M246.5 225.54L237.17 244.88L232.42 242.14C231.961 241.875 231.416 241.803 230.904 241.94C230.392 242.077 229.956 242.412 229.69 242.87L218.5 262.24V263.93C218.5 265.59 219.67 266.26 221.1 265.43L252.46 247.33C253.217 246.838 253.848 246.174 254.3 245.392C254.751 244.61 255.012 243.732 255.06 242.83V231.76L248.75 225.18C248.607 224.996 248.417 224.854 248.201 224.769C247.984 224.683 247.748 224.658 247.519 224.695C247.289 224.731 247.073 224.829 246.894 224.978C246.714 225.127 246.578 225.321 246.5 225.54V225.54Z" fill="#2C41AE"/>
<path d="M223.21 239.45C225.149 238.185 226.762 236.481 227.919 234.476C229.077 232.471 229.745 230.221 229.87 227.91C229.937 227.142 229.821 226.37 229.532 225.656C229.244 224.942 228.791 224.306 228.21 223.8L221.1 227.91C220.343 228.402 219.712 229.066 219.26 229.848C218.809 230.63 218.548 231.508 218.5 232.41V239.91C219.71 240.61 221.37 240.51 223.21 239.45Z" fill="#2C41AE"/>
<path d="M350 209.8L217 286.54C216.243 287.032 215.612 287.696 215.161 288.478C214.709 289.26 214.448 290.138 214.4 291.04V332C214.4 333.65 215.56 334.32 217 333.5L350 256.71C350.757 256.218 351.388 255.554 351.84 254.772C352.291 253.99 352.552 253.112 352.6 252.21V211.3C352.55 209.65 351.39 209 350 209.8Z" fill="#2C41AE"/>
<path opacity="0.2" d="M350 209.8L217 286.54C216.243 287.032 215.612 287.696 215.161 288.478C214.709 289.26 214.448 290.138 214.4 291.04V332C214.4 333.65 215.56 334.32 217 333.5L350 256.71C350.757 256.218 351.388 255.554 351.84 254.772C352.291 253.99 352.552 253.112 352.6 252.21V211.3C352.55 209.65 351.39 209 350 209.8Z" fill="white"/>
<path d="M265.35 265.45L289.45 251.54C290.65 250.85 291.62 251.34 291.62 252.63C291.567 253.358 291.343 254.064 290.966 254.69C290.589 255.315 290.07 255.843 289.45 256.23L265.35 270.14C264.15 270.83 263.18 270.34 263.18 269.05C263.233 268.321 263.457 267.616 263.834 266.99C264.211 266.365 264.731 265.837 265.35 265.45Z" fill="white"/>
<path d="M263.18 278.43C263.18 279.72 264.18 280.21 265.35 279.52L338.2 237.46C338.816 237.072 339.332 236.546 339.707 235.922C340.082 235.299 340.306 234.596 340.36 233.87C340.36 232.57 339.36 232.08 338.2 232.77L265.35 274.83C264.731 275.217 264.211 275.745 263.834 276.37C263.457 276.996 263.233 277.702 263.18 278.43Z" fill="white"/>
<path d="M263.18 287.81C263.18 289.1 264.18 289.59 265.35 288.9L338.2 246.84C338.816 246.452 339.332 245.926 339.707 245.302C340.082 244.678 340.306 243.976 340.36 243.25C340.36 241.95 339.36 241.46 338.2 242.15L265.35 284.21C264.731 284.597 264.211 285.125 263.834 285.75C263.457 286.376 263.233 287.081 263.18 287.81Z" fill="white"/>
<path d="M263.18 297.19C263.18 298.48 264.18 298.97 265.35 298.28L338.2 256.22C338.816 255.832 339.332 255.305 339.707 254.682C340.082 254.058 340.306 253.356 340.36 252.63C340.36 251.33 339.36 250.84 338.2 251.53L265.35 293.59C264.731 293.977 264.211 294.504 263.834 295.13C263.457 295.756 263.233 296.461 263.18 297.19Z" fill="white"/>
<path d="M221.1 288.89L252.46 270.78C253.9 269.95 255.06 270.62 255.06 272.28V303.8C255.014 304.702 254.754 305.581 254.302 306.363C253.85 307.145 253.218 307.809 252.46 308.3L221.1 326.41C219.67 327.24 218.5 326.57 218.5 324.91V293.39C218.548 292.488 218.809 291.61 219.26 290.828C219.712 290.046 220.343 289.382 221.1 288.89V288.89Z" fill="white"/>
<path d="M246.5 286.52L237.17 305.86L232.42 303.11C232.192 302.979 231.941 302.895 231.68 302.861C231.42 302.828 231.155 302.846 230.902 302.915C230.648 302.983 230.411 303.101 230.203 303.262C229.995 303.422 229.821 303.622 229.69 303.85L218.5 323.22V324.91C218.5 326.57 219.67 327.24 221.1 326.41L252.46 308.3C253.217 307.81 253.848 307.148 254.299 306.367C254.751 305.587 255.012 304.711 255.06 303.81V292.73L248.75 286.16C248.609 285.973 248.42 285.828 248.202 285.741C247.985 285.653 247.748 285.627 247.517 285.664C247.286 285.701 247.069 285.8 246.89 285.951C246.71 286.102 246.576 286.298 246.5 286.52V286.52Z" fill="#2C41AE"/>
<path d="M223.21 300.42C225.149 299.158 226.762 297.455 227.919 295.452C229.076 293.449 229.745 291.2 229.87 288.89C229.937 288.123 229.821 287.351 229.532 286.636C229.244 285.922 228.791 285.286 228.21 284.78L221.1 288.89C220.343 289.382 219.712 290.047 219.26 290.829C218.809 291.611 218.548 292.488 218.5 293.39V300.89C219.71 301.58 221.37 301.48 223.21 300.42Z" fill="#2C41AE"/>
<path d="M348.49 84V77.63C348.49 75.97 347.32 75.3 345.89 76.13L172.36 176.32C171.603 176.812 170.972 177.476 170.52 178.258C170.069 179.04 169.808 179.918 169.76 180.82V187.2L348.49 84Z" fill="#2C41AE"/>
<path d="M327.2 89.36C326.641 89.7273 326.175 90.221 325.842 90.8012C325.508 91.3813 325.316 92.0318 325.28 92.7C325.28 93.93 326.14 94.43 327.2 93.81C327.763 93.4478 328.231 92.9569 328.567 92.3779C328.902 91.7989 329.095 91.1483 329.13 90.48C329.13 89.25 328.27 88.75 327.2 89.36Z" fill="#F5F5F5"/>
<path d="M334.85 85.0003C334.289 85.3665 333.822 85.8597 333.486 86.4399C333.151 87.0201 332.957 87.6711 332.92 88.3403C332.92 89.5703 333.79 90.0603 334.85 89.4503C335.413 89.0858 335.881 88.5931 336.217 88.0124C336.552 87.4318 336.745 86.7799 336.78 86.1103C336.78 84.8303 335.92 84.3403 334.85 85.0003Z" fill="#F5F5F5"/>
<path d="M342.5 80.5398C341.937 80.902 341.469 81.3929 341.133 81.9719C340.798 82.5509 340.605 83.2015 340.57 83.8698C340.57 85.0998 341.43 85.5998 342.5 84.9898C343.059 84.6224 343.525 84.1288 343.858 83.5486C344.192 82.9685 344.384 82.318 344.42 81.6498C344.42 80.4198 343.56 79.9198 342.5 80.5398Z" fill="#F5F5F5"/>
<path d="M351.26 394.22C351.562 394.989 351.771 395.791 351.88 396.61C352.162 397.457 352.227 398.361 352.07 399.24C351.396 400.362 350.325 401.19 349.07 401.56C348.177 401.766 347.25 401.783 346.35 401.611C345.449 401.439 344.594 401.081 343.84 400.56C342.01 399.47 340.64 398.14 338.04 397.41C336.186 397.011 334.439 396.216 332.92 395.08C331.48 393.93 329.56 390.73 332.31 389.99C335.06 389.25 341.05 391.86 346.5 392.1L351.26 394.22Z" fill="#263238"/>
<path d="M351 390.62C351 390.62 351.32 394.44 351.32 394.91C351.32 396.2 346.56 397.91 345.68 394.91L344.92 390.85L351 390.62Z" fill="#F28F8F"/>
<path d="M345.16 306.81C346.797 309.217 348.296 311.714 349.65 314.29C349.65 314.29 350.12 319.85 350.12 323.55C350.12 330.35 349.07 335.6 348.12 349C349.667 351.636 350.552 354.607 350.7 357.66C351.1 363.73 351.11 363.66 351.15 391.66C350.239 392.152 349.239 392.456 348.208 392.556C347.178 392.655 346.138 392.548 345.15 392.24L336.15 353.03L335.15 337.64L332.33 318.51L345.16 306.81Z" fill="#37474F"/>
<path d="M323.86 401.23C324.18 401.56 324.07 402.23 324.22 403.33C324.386 404.176 324.43 405.041 324.35 405.9C323.825 407.089 322.877 408.041 321.69 408.57C320.827 408.881 319.909 409.011 318.993 408.95C318.078 408.89 317.185 408.642 316.37 408.22C314.43 407.36 312.9 406.22 310.23 405.81C308.34 405.647 306.508 405.078 304.86 404.14C303.29 403.14 300.98 400.24 303.62 399.14C306.26 398.04 312.88 400.01 318.31 399.57L323.86 401.23Z" fill="#263238"/>
<path d="M325.11 396.43C325.11 396.43 324.11 400.79 323.84 401.76C323.24 404.09 318.07 404.21 318.07 401.52L318.42 395.32L325.11 396.43Z" fill="#F28F8F"/>
<path d="M333.49 308C336.08 313.09 338.58 317.58 338.66 323C338.85 334.47 334.09 347.1 332.34 355.39C332.861 358.39 333.009 361.443 332.78 364.48C332.43 367.95 324.52 399.48 324.52 399.48C324.52 399.48 320.12 400.4 318.25 398.41L320.47 337.7L321.07 320.07L333.49 308Z" fill="#37474F"/>
<path d="M329.93 276.91L331.56 285.94L339.72 285.34L338.01 275.11L329.93 276.91Z" fill="#FFA8A7"/>
<path d="M348.33 284.68C347.52 282.23 344.41 279.56 341.33 280.14C336.704 280.926 332.144 282.063 327.69 283.54C324.84 284.54 322.24 287.03 322 296.41L321.11 320.01C322.342 321.105 323.821 321.888 325.42 322.29C329.75 323.48 332.61 324.19 339.19 322.75C347.76 320.88 349.8 315.69 349.8 315.69C349.8 315.69 349.47 303.2 349.21 296.41C349 290.64 348.88 286.37 348.33 284.68Z" fill="#455A64"/>
<path d="M326.45 265.38L284.9 254.11C281.14 253.46 279.57 262.64 283.33 263.28L326 267.59L326.45 265.38Z" fill="#263238"/>
<path d="M314.5 284.42L306.01 284.68C306.01 284.68 307.29 272.05 308.08 270.39C308.87 268.73 310.76 268.39 312.64 267.86C314.52 267.33 314.51 266.43 314.51 266.43L312.82 266.26C311.34 266.11 310.75 264.26 311.39 263.01C311.7 262.43 312.2 261.51 313.1 261.76L315.34 262.37C315.375 261.382 315.129 260.404 314.63 259.55C313.88 258.72 313.38 258.98 311.88 258.46C310.77 258.07 308.5 257.38 306.67 258.13C304.84 258.88 303.45 262.32 302.98 264.75C302.504 267.56 301.733 270.312 300.68 272.96C299.05 277.46 296.68 286.7 296.43 290.4C296.32 292.11 296.48 293.13 298.38 293.58C300.28 294.03 314.26 294.06 314.26 294.06L314.5 284.42Z" fill="#FFA8A7"/>
<path d="M323.89 266.22C323.89 266.22 321.89 269.14 322.17 269.46C322.622 269.761 323.122 269.981 323.65 270.11L323.89 266.22Z" fill="#FFA8A7"/>
<path d="M329.92 257C328.02 258 324.74 259.73 323.83 266.69C322.9 273.83 324.13 276.13 325.09 277.08C325.75 277.72 329.29 277.76 331.09 277.22C333.31 276.56 338.32 274.65 340.61 270.98C343.3 266.66 343.9 260.88 340.87 258.58C339.328 257.41 337.514 256.652 335.599 256.375C333.684 256.099 331.73 256.314 329.92 257V257Z" fill="#FFA8A7"/>
<path d="M335.51 343.17L339.84 330.93C343.196 329.74 346.204 327.733 348.59 325.09C348.59 325.09 347.59 328.58 340.75 332.16L336 343.74V350.18L335.51 343.17Z" fill="#263238"/>
<path d="M323.44 259.35C324.06 261.06 325.11 265.26 329.49 267.01C329.49 267.01 330.12 264.34 332.36 264.62C334.6 264.9 334.99 267.77 333.61 269.55C332.23 271.33 330.89 270.69 330.89 270.69C330.89 270.69 330.59 274.52 333.15 276.26C334.103 276.822 335.174 277.155 336.277 277.233C337.381 277.311 338.487 277.132 339.51 276.71C340.98 276.04 343.07 272.51 344.29 269.61C346.87 263.49 347.24 258.61 343.29 257.03C342.8 254.25 341.55 253.2 339.03 252.68C333.61 251.57 329.51 255.13 324.96 254.5C322.63 254.17 322.72 257.39 323.44 259.35Z" fill="#263238"/>
<path d="M343.42 258L345.98 256.41C345.757 256.098 345.424 255.883 345.048 255.808C344.671 255.732 344.281 255.803 343.955 256.006C343.63 256.208 343.393 256.527 343.294 256.897C343.194 257.267 343.239 257.662 343.42 258V258Z" fill="#263238"/>
<path d="M312.6 284.25C312.6 284.25 324.55 283.56 327.6 283.54C330.65 283.52 333.89 288.73 331.99 292.28C330.73 294.61 326.8 295.41 321.85 295.65C316.9 295.89 311.91 295.89 311.91 295.89C311.91 295.89 307.46 290.82 312.6 284.25Z" fill="#455A64"/>
<path d="M322 295.65C322 295.65 329.57 295.55 332.05 292.28C332.05 292.28 331.47 294.28 328.53 295.51C326.423 296.32 324.203 296.799 321.95 296.93L322 295.65Z" fill="#37474F"/>
<path d="M284.9 254.11C281.14 253.46 279.57 262.64 283.33 263.28L289.33 263.88C286.89 263.63 288.58 255.1 290.44 255.6L284.9 254.11Z" fill="#455A64"/>
<path d="M436.22 251.66C436.221 253.522 435.66 255.34 434.612 256.878C433.564 258.417 432.076 259.603 430.343 260.283C428.611 260.964 426.713 261.106 424.898 260.691C423.083 260.277 421.436 259.325 420.17 257.96L419.56 257.22C418.137 255.322 417.496 252.95 417.771 250.593C418.045 248.237 419.214 246.075 421.035 244.555C422.857 243.035 425.193 242.272 427.56 242.424C429.928 242.575 432.147 243.63 433.76 245.37L434.39 246.13C435.578 247.729 436.219 249.668 436.22 251.66V251.66Z" fill="#455A64"/>
<path d="M436.22 251.66C436.221 253.522 435.66 255.34 434.612 256.878C433.564 258.417 432.076 259.603 430.343 260.283C428.611 260.964 426.713 261.106 424.898 260.691C423.083 260.277 421.436 259.325 420.17 257.96L419.56 257.22L385.5 216L397.25 201.27L433.76 245.35L434.39 246.11C435.582 247.715 436.224 249.661 436.22 251.66Z" fill="#455A64"/>
<path d="M404.32 238.81C405.939 240.508 408.143 241.529 410.486 241.665C412.829 241.8 415.136 241.042 416.941 239.542C418.745 238.042 419.913 235.912 420.208 233.584C420.503 231.256 419.904 228.903 418.53 227V227L413.76 221.25C415.186 223.149 415.827 225.523 415.552 227.882C415.277 230.241 414.107 232.404 412.282 233.924C410.458 235.444 408.119 236.205 405.75 236.05C403.38 235.895 401.161 234.835 399.55 233.09L404.32 238.81Z" fill="#2C41AE"/>
<path d="M396.63 128.06C399.541 128.384 402.355 129.299 404.9 130.75L393.17 123.93C385.3 118.52 373.97 118.84 361.38 126.1C337.61 139.83 318.33 173.22 318.33 200.68C318.33 214.17 322.92 223.81 330.49 228.39L330.65 228.49L343.17 235.7C340.95 234.255 339.014 232.415 337.46 230.27C340.545 230.608 343.664 230.429 346.69 229.74C347.79 229.5 348.9 229.21 350.03 228.85C349.882 228.806 349.738 228.749 349.6 228.68C348.998 228.398 348.423 228.064 347.88 227.68C346.896 226.994 346.019 226.165 345.28 225.22C344.269 223.926 343.448 222.495 342.84 220.97C342.025 221.088 341.203 221.148 340.38 221.15C338.434 221.189 336.502 220.803 334.72 220.02C334.303 219.829 333.899 219.612 333.51 219.37C333.16 219.15 332.81 218.89 332.51 218.63C331.787 215.245 331.435 211.791 331.46 208.33C331.46 180.88 350.74 147.48 374.53 133.75C377.567 131.978 380.786 130.537 384.13 129.45C385.031 129.818 385.879 130.306 386.65 130.9C387.467 131.527 388.202 132.252 388.84 133.06C389.854 134.357 390.679 135.791 391.29 137.32C392.108 137.205 392.934 137.149 393.76 137.15C396.021 137.089 398.257 137.631 400.24 138.72C400.742 138.993 401.22 139.308 401.67 139.66C401.49 138.86 401.3 138.07 401.07 137.32C400.167 133.989 398.662 130.85 396.63 128.06V128.06Z" fill="#263238"/>
<path d="M404.9 130.75L404.22 130.38C401.856 129.142 399.282 128.355 396.63 128.06C393.784 127.743 390.905 127.874 388.1 128.45C386.749 128.706 385.413 129.04 384.1 129.45C380.756 130.537 377.537 131.978 374.5 133.75C350.71 147.48 331.43 180.88 331.43 208.33C331.405 211.791 331.757 215.245 332.48 218.63C332.61 219.24 332.76 219.82 332.91 220.4C333.801 223.94 335.348 227.281 337.47 230.25C338.418 231.557 339.508 232.754 340.72 233.82C341.493 234.5 342.315 235.122 343.18 235.68C351.03 240.75 362.18 240.31 374.48 233.19C398.27 219.46 417.55 186.07 417.55 158.61C417.54 144.88 412.71 135.23 404.9 130.75ZM400.2 138.75C400.702 139.023 401.18 139.338 401.63 139.69C402.384 140.303 403.071 140.993 403.68 141.75C406.68 145.51 408.27 151.36 408.27 158.64C408.27 182.64 390.67 213.16 369.84 225.19C364.59 228.19 359.54 229.83 355.25 229.83C353.46 229.851 351.685 229.511 350.03 228.83C349.882 228.786 349.738 228.729 349.6 228.66C348.998 228.378 348.423 228.044 347.88 227.66C347.205 227.186 346.582 226.644 346.02 226.04C345.77 225.78 345.53 225.49 345.29 225.2C344.279 223.906 343.458 222.475 342.85 220.95C341.327 216.915 340.6 212.622 340.71 208.31C340.71 207.99 340.71 207.68 340.71 207.31C341.15 183.41 358.56 153.58 379.12 141.72C379.59 141.45 380.07 141.18 380.55 140.93C383.866 139.078 387.486 137.835 391.24 137.26C392.058 137.145 392.884 137.089 393.71 137.09C395.489 137.075 397.254 137.415 398.9 138.09C399.351 138.269 399.786 138.487 400.2 138.74V138.75Z" fill="#455A64"/>
<path opacity="0.6" d="M404.25 155.86C404.25 179.86 386.65 210.38 365.82 222.41C360.57 225.41 355.53 227.05 351.23 227.05C349.444 227.071 347.672 226.731 346.02 226.05V226.05C345.77 225.79 345.53 225.5 345.29 225.21C344.279 223.916 343.458 222.485 342.85 220.96C341.327 216.925 340.6 212.632 340.71 208.32C340.71 208 340.71 207.69 340.71 207.32C341.15 183.42 358.56 153.59 379.12 141.73C379.59 141.46 380.07 141.19 380.55 140.94C383.865 139.088 387.486 137.845 391.24 137.27C392.058 137.155 392.884 137.099 393.71 137.1C395.489 137.085 397.254 137.425 398.9 138.1C399.17 138.37 399.42 138.66 399.66 138.95C402.66 142.73 404.25 148.58 404.25 155.86Z" fill="white"/>
</svg>
