<svg width="293" height="33" viewBox="0 0 293 33" fill="none" xmlns="http://www.w3.org/2000/svg">
<g clip-path="url(#clip0)">
<path d="M233.048 15.4419L232.935 16.0765C233.048 15.6535 233.16 15.4419 233.048 15.4419ZM264.489 21.1535H264.376C264.151 21.9996 264.263 21.7881 264.489 21.1535ZM61.7554 8.88424L61.0792 8.03809C61.3046 8.88424 61.53 9.09578 61.7554 8.88424ZM38.8788 20.3073L38.9915 20.9419C38.9915 20.5189 38.9915 20.3073 38.8788 20.3073ZM25.2431 22.8458C24.905 22.6342 24.4542 22.6342 24.1162 22.6342C24.3415 22.8458 24.905 22.8458 25.2431 22.8458ZM19.7212 10.5765C19.6085 10.7881 19.4958 10.7881 19.2704 10.9996C19.4958 10.7881 19.6085 10.5765 19.7212 10.5765ZM59.3889 20.7304L59.9523 22.6342C59.8396 21.9996 59.6142 21.365 59.3889 20.7304ZM21.975 24.5381C21.7496 24.115 21.5242 24.115 21.2988 23.9035C21.2988 24.3266 21.6369 24.5381 21.975 24.5381ZM136.245 24.115C136.132 24.3265 136.02 24.5381 136.02 24.7496C136.358 24.5381 136.358 24.3265 136.245 24.115ZM91.1681 21.9996H91.0554C91.0554 21.9996 91.1681 22.2112 91.2808 22.2112L91.1681 21.9996V21.9996ZM104.353 21.9996L104.128 22.4227C104.353 22.2112 104.353 22.2112 104.353 21.9996ZM81.2512 23.9035C81.1385 24.115 80.9131 24.3266 80.8004 24.5381L81.2512 23.9035Z" fill="#FF7A4F"/>
<path d="M293 12.6923C291.873 11.4231 287.704 10.1539 286.464 13.3269C286.239 13.1154 286.577 12.6923 286.69 12.4808C285.675 12.9039 284.21 12.6923 282.633 12.4808C281.055 12.2692 279.365 12.0577 277.9 12.4808C276.773 15.6539 273.505 11.2116 272.49 15.4423L273.054 14.5962C274.068 15.6539 271.702 17.5577 271.363 18.6154C270.462 16.0769 271.251 16.5 270.237 14.3846L271.476 15.2308L271.138 13.1154C267.645 19.0385 264.151 11.2116 261.897 15.4423C262.01 15.2308 262.01 14.8077 262.123 14.5962C260.545 13.5385 259.531 16.2885 258.404 17.1346C258.291 16.0769 259.08 15.2308 259.643 14.3846C256.939 13.75 252.431 16.9231 249.501 15.2308C248.487 16.7116 249.952 17.1346 248.825 18.4039C247.923 17.9808 247.247 16.9231 248.374 16.0769C245.782 13.5385 239.81 18.1923 235.865 15.6539C233.837 17.3462 235.077 17.9808 231.921 19.0385C232.71 17.9808 231.132 15.4423 233.048 15.4423L233.273 14.3846C230.118 14.1731 225.836 13.75 224.145 16.9231C224.033 14.5962 223.582 16.5 222.342 15.2308C221.892 15.4423 222.342 15.6539 222.568 15.6539C221.441 17.5577 220.765 15.4423 219.976 15.8654L220.314 15.4423L218.06 16.9231C217.722 16.5 217.158 16.0769 217.046 15.4423V17.1346C215.806 17.1346 216.482 15.0192 214.905 15.4423L215.243 16.7116C214.228 15.8654 212.763 17.5577 212.538 15.6539C212.538 15.2308 212.651 15.4423 212.989 15.4423C211.524 12.9039 209.045 16.0769 207.242 14.8077L207.692 17.5577C205.889 18.4039 206.565 16.9231 206.678 16.0769C205.438 16.0769 205.213 15.2308 203.635 14.8077C202.847 15.4423 203.185 15.8654 202.959 16.5L201.269 15.6539L202.396 14.1731C199.804 17.9808 196.085 13.3269 194.282 16.7116C193.38 15.8654 195.183 15.2308 194.62 14.5962C191.69 12.6923 187.858 16.7116 185.379 14.5962C181.322 12.4808 176.589 13.75 172.082 12.2692L172.194 12.9039L168.926 12.0577C168.025 13.5385 165.883 12.6923 164.418 14.3846C164.531 13.75 164.306 12.9039 164.644 12.4808C163.292 12.6923 161.714 13.3269 160.925 12.2692L161.376 11.6346C158.333 11 154.163 10.5769 152.473 11.8462C151.459 11.8462 151.459 10.5769 151.233 9.73079C149.43 9.51925 148.303 10.1539 146.838 11.2116C146.5 10.7885 146.05 10.5769 145.712 9.94233L145.035 11.6346C144.359 11.4231 144.923 10.1539 144.359 9.73079C141.542 11.6346 138.387 9.51925 136.471 9.51925L136.696 10.3654C135.907 11 134.33 9.73079 135.344 8.88463C131.512 7.6154 129.597 11.4231 124.525 10.5769C123.849 7.40386 119.905 11.2116 119.116 7.6154C116.975 8.46156 115.51 6.98079 114.045 8.88463C114.045 8.46156 113.82 8.46156 114.158 8.25002C113.256 6.98079 110.439 7.82694 108.185 8.67309L108.072 7.6154C107.058 10.1539 103.339 9.51925 102.55 11.8462C102.325 11.4231 103.001 10.7885 103.339 10.3654C102.212 8.03848 101.311 11.4231 99.8458 10.7885C99.9585 10.1539 99.5077 9.51925 99.8458 9.09617C94.8873 6.55771 87.9004 10.5769 81.477 8.88463C79.6739 8.88463 82.1531 11.4231 79.7866 11.2116C79.1104 9.94233 80.9135 8.88463 79.4485 8.25002C78.4343 9.73079 77.9835 9.30771 76.5185 9.30771C76.7439 8.46156 76.5185 8.03848 77.5327 7.40386C76.7439 6.34617 74.0393 9.30771 72.4616 7.40386C72.5743 8.03848 72.2362 8.46156 71.8981 8.88463C69.5316 11 66.3762 6.98079 66.1508 8.03848C66.1508 8.03848 65.362 8.46156 66.0381 8.67309C65.1366 8.67309 63.897 8.25002 64.1224 7.19233C63.6716 7.82694 63.2208 8.88463 62.5447 8.88463L62.8827 7.6154C62.432 7.82694 61.9812 8.67309 61.6431 8.88463L62.3193 9.73079C61.305 8.67309 59.3893 11.4231 59.3893 8.88463H59.7273L57.8116 7.82694C57.0227 8.88463 56.3466 9.94233 54.9943 9.73079C54.4308 6.98079 51.7262 9.30771 50.1485 9.09617L50.2612 8.25002C49.0216 9.51925 45.7535 9.09617 46.317 9.51925C45.0773 9.51925 43.387 9.09617 44.0631 8.25002C43.1616 8.46156 41.0204 8.46156 40.457 10.1539L38.4285 8.03848C37.3016 11.4231 34.3716 6.98079 34.3716 10.5769C33.2447 10.1539 33.47 9.30771 32.6812 8.67309C31.1035 10.5769 29.5258 10.3654 27.9481 10.1539V9.73079C26.3704 9.51925 24.4547 11.4231 22.2008 11.8462L21.6374 9.30771C20.5104 9.73079 20.1724 11.8462 19.0454 11.4231C18.82 11 19.0454 10.7885 19.2708 10.7885C18.1439 11.4231 16.6789 11 15.7774 10.3654C14.087 12.4808 12.7347 11.8462 11.3824 14.1731C9.91736 12.0577 13.2981 12.9039 12.0585 10.7885C9.57928 9.94233 7.10005 11.6346 4.50813 13.1154C4.28274 12.6923 4.50813 12.2692 4.62082 11.6346C4.62082 11.6346 3.26851 13.5385 2.14159 15.4423C1.01467 17.5577 0.000434848 19.8846 0.563896 21.1539C0.000434848 23.0577 -0.788411 24.1154 1.57813 25.3846C2.25428 24.3269 4.39543 22.6346 4.8462 24.5385L4.9589 22.6346C7.8889 21.3654 5.40967 26.4423 9.01582 26.0192L8.22697 25.3846C8.90313 25.1731 9.46659 23.9039 10.2554 24.3269C10.4808 24.75 10.03 25.1731 9.69197 25.5962C10.7062 24.5385 11.6077 23.6923 12.622 22.6346C12.7347 23.6923 12.7347 24.3269 12.1712 25.1731C14.9885 24.75 11.495 21.7885 14.8758 22.2116C15.552 23.0577 14.6504 23.4808 14.3124 24.1154C15.89 25.5962 16.9043 23.9039 18.5947 22.8462C18.7074 24.5385 17.5804 24.3269 18.9327 25.3846C18.5947 24.5385 18.3693 23.0577 19.4962 22.8462C19.0454 24.5385 20.285 23.6923 21.2993 23.9039C21.0739 23.2692 21.1866 22.6346 21.5247 22.2116C21.9754 22 22.4262 22.4231 23.1024 22.4231L21.8627 20.9423C23.5531 19.25 24.5674 21.5769 25.9197 22.2116C25.807 22.4231 25.5816 22.8462 25.3562 22.8462C26.7085 23.4808 28.1735 24.75 29.9766 23.0577L29.6385 23.2692C32.9066 21.3654 28.5116 20.5192 32.3431 18.6154C33.5827 18.8269 31.8924 24.1154 34.7097 22C33.2447 20.7308 36.5127 18.4039 38.2031 17.7692L36.5127 21.1539C37.1889 21.1539 38.3158 20.0962 38.7666 20.5192L38.6539 19.8846C38.4285 17.1346 40.795 20.0962 42.0347 18.4039C40.5697 22.2116 40.457 21.5769 40.2316 25.1731C41.3585 23.0577 42.7108 21.1539 44.852 21.3654L43.1616 24.3269C45.9789 24.75 49.3597 20.3077 51.7262 17.9808C51.1627 20.0962 52.0643 20.9423 51.05 22.6346L53.7547 22L52.9658 24.3269C54.0927 21.7885 55.3324 23.4808 55.107 20.3077C54.7689 20.7308 54.8816 21.1539 54.3181 20.9423C54.4308 20.0962 54.8816 17.9808 56.2339 18.1923C57.2481 18.8269 55.6704 19.4616 56.0085 20.3077C56.91 19.0385 57.0227 20.9423 57.9243 20.0962L57.0227 18.8269C57.6989 16.9231 58.6004 18.6154 59.502 17.7692C58.375 18.6154 58.7131 19.6731 59.1639 20.7308L59.0512 20.5192C59.9527 20.3077 60.8543 19.0385 61.305 20.0962L60.7416 22.6346L61.7558 20.7308C62.0939 20.9423 62.432 22 61.7558 22.4231C64.9112 23.9039 61.6431 17.1346 65.8127 19.25C65.8127 20.3077 65.362 20.9423 64.235 20.3077C64.0097 21.7885 64.3477 22.6346 65.4747 23.2692V23.4808C67.6158 23.4808 70.4331 23.4808 71.7854 21.7885C72.2362 22.4231 71.7854 23.0577 71.3347 23.6923C73.7012 24.5385 74.49 22.2116 76.9693 23.9039L75.8424 23.0577C77.42 21.7885 80.35 21.3654 81.815 23.2692L81.3643 23.9039C82.8293 22.4231 85.3085 25.1731 85.872 23.9039C85.1958 23.0577 85.872 22.6346 84.9704 21.7885L88.802 20.3077L89.0274 22.8462L91.0558 22C90.605 20.9423 93.7604 22.8462 93.8731 20.5192C95 21.3654 93.4224 22.4231 92.9716 23.4808C94.0985 22.8462 94.2112 23.9039 95.3381 22.4231L96.465 24.75L99.395 23.2692C99.2823 23.4808 99.395 23.6923 99.2823 23.9039C100.635 22 102.776 25.1731 104.466 22C104.354 22.2116 104.354 22.2116 104.354 22.4231C105.368 20.7308 107.622 22 108.523 22.4231C110.101 22 109.199 20.3077 109.199 19.4616C113.594 20.3077 112.242 20.0962 115.961 17.5577C118.215 20.5192 113.256 22 116.074 23.9039C116.524 22.6346 118.44 21.5769 120.694 21.1539C122.722 22.2116 126.103 23.0577 128.019 25.1731L127.794 23.2692L130.724 22.4231L129.033 24.9616C129.484 24.3269 130.949 23.2692 131.963 22.4231C135.006 20.9423 133.541 26.4423 135.907 23.9039C136.02 24.1154 136.02 24.3269 136.133 24.5385C136.922 23.2692 138.837 23.9039 141.091 23.4808L140.302 25.8077L138.837 25.1731C139.626 27.5 141.204 24.9616 142.669 25.1731C144.134 24.5385 143.458 22.4231 144.247 21.7885C144.81 22 145.599 21.3654 146.05 22C147.289 22.8462 146.162 24.75 145.712 25.8077C146.838 23.4808 147.289 23.9039 149.768 23.0577C149.881 24.1154 149.656 24.75 149.318 24.9616C149.881 24.75 150.332 24.3269 150.67 23.2692L151.459 24.75C154.276 26.8654 154.389 20.5192 157.77 21.5769C156.868 22.8462 160.7 21.5769 161.714 23.0577C160.474 23.2692 162.165 26.4423 161.488 27.9231C164.193 28.9808 162.615 25.1731 164.869 24.9616L163.855 27.7116C165.996 26.6539 164.418 26.2308 166.56 25.3846C165.996 26.2308 167.461 26.2308 166.222 27.0769C169.039 27.5 168.363 27.2885 170.842 27.7116L171.067 24.9616C171.856 24.75 172.194 26.0192 172.42 26.4423C172.082 26.4423 171.518 26.2308 171.631 26.6539C172.532 29.1923 173.208 25.3846 174.335 27.7116C174.11 26.8654 173.772 25.5962 174.786 25.3846C174.448 27.0769 176.364 27.0769 176.364 27.9231C175.688 26.6539 178.618 27.5 178.73 25.8077C179.857 27.2885 178.28 27.0769 178.28 28.1346C179.294 26.0192 182.449 28.1346 183.463 26.8654C183.463 27.0769 183.576 27.0769 183.576 27.2885C184.928 26.0192 186.957 25.8077 189.549 24.1154L188.647 25.5962C191.127 26.4423 190.225 22.4231 192.366 22.4231C191.915 24.75 195.86 22.4231 194.845 24.9616C196.085 23.6923 197.437 23.2692 198.339 21.3654C199.466 22.6346 195.972 24.3269 197.663 25.1731L199.466 24.1154L199.804 25.3846C199.917 24.5385 201.494 24.5385 201.382 23.6923C201.607 25.1731 202.396 26.2308 202.283 27.5C203.41 27.0769 204.988 28.5577 206.002 27.2885L206.115 27.9231C207.242 25.1731 209.608 27.5 210.172 24.75L210.848 26.2308C212.538 26.0192 212.313 23.0577 213.102 22.4231C213.778 22.4231 214.679 22 215.355 22.4231C213.102 24.1154 216.482 24.75 216.933 25.8077C217.835 25.8077 220.427 25.8077 221.103 24.3269C219.976 25.8077 220.652 26.8654 218.736 27.0769C219.75 29.8269 221.666 26.6539 223.807 26.8654V28.1346C226.85 27.2885 226.963 24.9616 228.315 22.8462C228.653 24.5385 228.428 24.9616 227.526 26.4423C229.555 27.5 232.823 26.2308 235.077 26.4423C235.753 27.5 235.302 28.3462 234.513 28.7692C236.88 27.5 239.81 28.9808 241.275 26.2308C240.711 27.2885 242.289 26.8654 243.078 27.5C243.078 26.8654 243.19 26.2308 243.303 26.2308C244.768 24.9616 247.923 23.9039 249.614 24.75L249.05 25.5962C250.966 25.8077 252.431 24.5385 253.896 23.6923C255.361 22.8462 256.826 22 258.967 22.8462C259.756 23.4808 258.178 25.1731 259.756 24.9616C260.545 23.9039 260.207 21.7885 262.235 22.2116L262.123 24.1154L263.475 22.2116C262.686 20.7308 260.545 21.3654 262.01 19.6731C263.813 21.3654 263.475 17.7692 265.729 19.6731C265.278 19.8846 264.602 21.3654 264.264 22.2116C266.518 23.0577 268.095 22.4231 269.673 22C271.251 21.3654 272.828 20.7308 275.195 21.5769C277.449 19.8846 280.379 19.0385 281.844 17.5577C281.844 19.4616 281.844 21.1539 280.942 22.6346C282.971 22.6346 283.647 18.1923 285.112 20.7308C285.901 17.9808 290.408 18.1923 290.747 14.3846L293 12.6923Z" fill="#FF7A4F"/>
<path d="M65.4742 23.481C64.3473 23.481 63.3331 23.481 62.8823 23.904C63.1077 24.3271 65.4742 25.1733 65.4742 23.481ZM234.625 28.1348C234.513 28.1348 234.287 28.3463 234.175 28.3463C234.287 28.3463 234.513 28.3463 234.625 28.1348ZM243.753 27.2886C243.641 27.0771 243.528 26.8656 243.303 26.654C243.303 27.2886 243.415 27.7117 243.753 27.2886ZM201.156 28.981C201.945 28.1348 202.283 27.5002 202.283 26.8656C201.832 27.0771 201.494 27.5002 201.156 28.981ZM183.688 26.654C183.576 26.8656 183.463 26.8656 183.35 27.0771C183.688 26.8656 183.688 26.654 183.688 26.654ZM146.725 25.3848C147.514 24.5386 148.528 24.7502 149.43 24.3271C148.641 24.7502 147.289 23.6925 146.725 25.3848ZM254.797 24.1156L254.008 25.3848L254.91 24.5386L254.797 24.1156ZM246.345 25.3848C246.007 25.1733 244.43 26.0194 244.88 26.654C245.331 26.0194 245.895 25.5963 246.345 25.3848ZM213.665 24.1156L213.327 25.3848L214.115 24.3271L213.665 24.1156Z" fill="#FF7A4F"/>
</g>
<defs>
<clipPath id="clip0">
<rect width="293" height="33" fill="white"/>
</clipPath>
</defs>
</svg>
